{
    "id": "cc0fae7b9c174dbf90271b001ebec68b",
    "name": "Nuevo canal",
    "domainName": "ladorian.com",
    "dkim": {
        "public": "MIGfMA0GCSqGSIb3DQEBAQUAA4GNADCBiQKBgQD4iGbvVAZjmpd7oGGJrK8mcm6ocvcHH7NkM6ZpEJDARzVXM1jBGKXv83dhc24wCgGPqjLXQ3k8TTtUE+Jwr/jp8vxC8EpAY0gy91EOowFrEPYqJSThYnW1ZV+JYb5ye/OQh9UX3dwlqPwPihbLH24APzjujbqM2c0apVjX9m7WYQIDAQAB",
        "selector": "scph0122._domainkey.ladorian.com",
        "headers": "from:to:subject:date",
        "signingDomain": "ladorian.com",
        "record": "v=DKIM1; k=rsa; h=sha256; p=MIGfMA0GCSqGSIb3DQEBAQUAA4GNADCBiQKBgQD4iGbvVAZjmpd7oGGJrK8mcm6ocvcHH7NkM6ZpEJDARzVXM1jBGKXv83dhc24wCgGPqjLXQ3k8TTtUE+Jwr/jp8vxC8EpAY0gy91EOowFrEPYqJSThYnW1ZV+JYb5ye/OQh9UX3dwlqPwPihbLH24APzjujbqM2c0apVjX9m7WYQIDAQAB"
    },
    "status": "action_required",
    "webhook": "",
    "createdAt": "2022-01-11T15:14:40.368810446Z",
    "updatedAt": "2022-01-11T15:14:40.368810446Z"
}